{
  "offset": 13,
  "scenario": "R_SC1",
  "tasks": [
    {
      "entityName": "ForumDB",
      "startTime": 1579729888205,
      "endTime": 1579730074672,
      "duration": 186467,
      "taskName": "stop",
      "taskId": "CzsUHNPs"
    },
    {
      "entityName": "ForumDB",
      "startTime": 1579730077990,
      "endTime": 1579730467718,
      "duration": 389728,
      "taskName": "start",
      "taskId": "EBlrFRVG"
    },
    {
      "entityName": "SoftcareWS",
      "startTime": 1579729839224,
      "endTime": 1579729887709,
      "duration": 48485,
      "taskName": "stop",
      "taskId": "ZJYSkB4m"
    },
    {
      "entityName": "SoftcareWS",
      "startTime": 1579730468222,
      "endTime": 1579730580003,
      "duration": 111781,
      "taskName": "restart",
      "taskId": "EcDUTU5g"
    },
    {
      "entityName": "Softcare_dashboard",
      "startTime": 1579729837632,
      "endTime": 1579729838567,
      "duration": 935,
      "taskName": "stop",
      "taskId": "xQAhxYam"
    },
    {
      "entityName": "Softcare_dashboard",
      "startTime": 1579730580678,
      "endTime": 1579730615362,
      "duration": 34684,
      "taskName": "restart",
      "taskId": "rg3zsRQe"
    },
    {
      "entityName": "SoftcareDB",
      "startTime": 1579729888204,
      "endTime": 1579730077512,
      "duration": 189308,
      "taskName": "stop",
      "taskId": "s8XNNw3d"
    },
    {
      "entityName": "SoftcareDB",
      "startTime": 1579730077989,
      "endTime": 1579730461280,
      "duration": 383291,
      "taskName": "start",
      "taskId": "LsxBKjAL"
    },
    {
      "entityName": "Forum",
      "startTime": 1579729839222,
      "endTime": 1579729840262,
      "duration": 1040,
      "taskName": "stop",
      "taskId": "G6hAyPRA"
    },
    {
      "entityName": "Forum",
      "startTime": 1579730468223,
      "endTime": 1579730528269,
      "duration": 60046,
      "taskName": "restart",
      "taskId": "q23keKT5"
    }
  ]
}
