{
  "offset": 11,
  "scenario": "R_SC1",
  "tasks": [
    {
      "entityName": "ForumDB",
      "startTime": 1579726610524,
      "endTime": 1579726684990,
      "duration": 74466,
      "taskName": "stop",
      "taskId": "fkqqTnI5"
    },
    {
      "entityName": "ForumDB",
      "startTime": 1579726685480,
      "endTime": 1579727289655,
      "duration": 604175,
      "taskName": "start",
      "taskId": "gW3vYuOh"
    },
    {
      "entityName": "SoftcareWS",
      "startTime": 1579726565535,
      "endTime": 1579726610019,
      "duration": 44484,
      "taskName": "stop",
      "taskId": "GcaXoFPR"
    },
    {
      "entityName": "SoftcareWS",
      "startTime": 1579727293665,
      "endTime": 1579727406529,
      "duration": 112864,
      "taskName": "restart",
      "taskId": "zzqmTYSk"
    },
    {
      "entityName": "Softcare_dashboard",
      "startTime": 1579726563895,
      "endTime": 1579726564830,
      "duration": 935,
      "taskName": "stop",
      "taskId": "VLhyZwp7"
    },
    {
      "entityName": "Softcare_dashboard",
      "startTime": 1579727407406,
      "endTime": 1579727510476,
      "duration": 103070,
      "taskName": "restart",
      "taskId": "NSWi85sg"
    },
    {
      "entityName": "SoftcareDB",
      "startTime": 1579726610524,
      "endTime": 1579726680067,
      "duration": 69543,
      "taskName": "stop",
      "taskId": "D5sJRkZe"
    },
    {
      "entityName": "SoftcareDB",
      "startTime": 1579726685476,
      "endTime": 1579727293112,
      "duration": 607636,
      "taskName": "start",
      "taskId": "x6EJTfAk"
    },
    {
      "entityName": "Forum",
      "startTime": 1579726565535,
      "endTime": 1579726566568,
      "duration": 1033,
      "taskName": "stop",
      "taskId": "lX2mCM3c"
    },
    {
      "entityName": "Forum",
      "startTime": 1579727293664,
      "endTime": 1579727336371,
      "duration": 42707,
      "taskName": "restart",
      "taskId": "nXnZQ2oA"
    }
  ]
}
