{
  "offset": 19,
  "scenario": "R_SC1",
  "tasks": [
    {
      "entityName": "ForumDB",
      "startTime": 1579734724238,
      "endTime": 1579734804039,
      "duration": 79801,
      "taskName": "stop",
      "taskId": "FYy5L96p"
    },
    {
      "entityName": "ForumDB",
      "startTime": 1579734804509,
      "endTime": 1579735158870,
      "duration": 354361,
      "taskName": "start",
      "taskId": "PMRNjnGF"
    },
    {
      "entityName": "SoftcareWS",
      "startTime": 1579734670400,
      "endTime": 1579734723755,
      "duration": 53355,
      "taskName": "stop",
      "taskId": "c4DIp96G"
    },
    {
      "entityName": "SoftcareWS",
      "startTime": 1579735176650,
      "endTime": 1579735342481,
      "duration": 165831,
      "taskName": "restart",
      "taskId": "DEMk9gcL"
    },
    {
      "entityName": "Softcare_dashboard",
      "startTime": 1579734668752,
      "endTime": 1579734669698,
      "duration": 946,
      "taskName": "stop",
      "taskId": "wDg9qO0s"
    },
    {
      "entityName": "Softcare_dashboard",
      "startTime": 1579735343176,
      "endTime": 1579735374607,
      "duration": 31431,
      "taskName": "restart",
      "taskId": "VZ70UJ8X"
    },
    {
      "entityName": "SoftcareDB",
      "startTime": 1579734724237,
      "endTime": 1579734804047,
      "duration": 79810,
      "taskName": "stop",
      "taskId": "pnU9PElb"
    },
    {
      "entityName": "SoftcareDB",
      "startTime": 1579734804510,
      "endTime": 1579735176132,
      "duration": 371622,
      "taskName": "start",
      "taskId": "vRROtmOx"
    },
    {
      "entityName": "Forum",
      "startTime": 1579734670401,
      "endTime": 1579734671315,
      "duration": 914,
      "taskName": "stop",
      "taskId": "H3IolEmP"
    },
    {
      "entityName": "Forum",
      "startTime": 1579735176650,
      "endTime": 1579735218670,
      "duration": 42020,
      "taskName": "restart",
      "taskId": "QOfZ6FkL"
    }
  ]
}
