{
  "offset": 0,
  "scenario": "R_SC4",
  "tasks": [
    {
      "entityName": "SoftcareWS",
      "startTime": 1580239367092,
      "endTime": 1580239538417,
      "duration": 171325,
      "taskName": "stop",
      "taskId": "TFvD8DO4"
    },
    {
      "entityName": "SoftcareWS",
      "startTime": 1580239539108,
      "endTime": 1580240056768,
      "duration": 517660,
      "taskName": "start",
      "taskId": "Xa21xMJS"
    },
    {
      "entityName": "Softcare_dashboard",
      "startTime": 1580239365656,
      "endTime": 1580239366577,
      "duration": 921,
      "taskName": "stop",
      "taskId": "VwzD3iEJ"
    },
    {
      "entityName": "Softcare_dashboard",
      "startTime": 1580240057498,
      "endTime": 1580240089610,
      "duration": 32112,
      "taskName": "restart",
      "taskId": "JWAIH6xz"
    },
    {
      "entityName": "Forum",
      "startTime": 1580239367092,
      "endTime": 1580239384175,
      "duration": 17083,
      "taskName": "restart",
      "taskId": "jaPn4Li0"
    }
  ]
}
