{
  "offset": 2,
  "scenario": "R_SC4",
  "tasks": [
    {
      "entityName": "SoftcareWS",
      "startTime": 1580240809019,
      "endTime": 1580240863267,
      "duration": 54248,
      "taskName": "stop",
      "taskId": "G5bEIdiL"
    },
    {
      "entityName": "SoftcareWS",
      "startTime": 1580240863962,
      "endTime": 1580241333100,
      "duration": 469138,
      "taskName": "start",
      "taskId": "g8jvK6JV"
    },
    {
      "entityName": "Softcare_dashboard",
      "startTime": 1580240807675,
      "endTime": 1580240808503,
      "duration": 828,
      "taskName": "stop",
      "taskId": "RCubal4O"
    },
    {
      "entityName": "Softcare_dashboard",
      "startTime": 1580241333782,
      "endTime": 1580241368506,
      "duration": 34724,
      "taskName": "restart",
      "taskId": "Q2vufhHe"
    },
    {
      "entityName": "Forum",
      "startTime": 1580240809020,
      "endTime": 1580240826254,
      "duration": 17234,
      "taskName": "restart",
      "taskId": "jP28hHOK"
    }
  ]
}
