{
  "offset": 9,
  "scenario": "R_SC2",
  "tasks": [
    {
      "entityName": "ForumDB",
      "startTime": 1579917413740,
      "endTime": 1579917418860,
      "duration": 5120,
      "taskName": "restart",
      "taskId": "tmZR4enS"
    },
    {
      "entityName": "SoftcareWS",
      "startTime": 1579917412177,
      "endTime": 1579917413113,
      "duration": 936,
      "taskName": "stop",
      "taskId": "UE6vnxgw"
    },
    {
      "entityName": "SoftcareWS",
      "startTime": 1579917419438,
      "endTime": 1579917516926,
      "duration": 97488,
      "taskName": "restart",
      "taskId": "nh4BessO"
    },
    {
      "entityName": "Softcare_dashboard",
      "startTime": 1579917410560,
      "endTime": 1579917411473,
      "duration": 913,
      "taskName": "stop",
      "taskId": "i1uBwybm"
    },
    {
      "entityName": "Softcare_dashboard",
      "startTime": 1579917517608,
      "endTime": 1579917550779,
      "duration": 33171,
      "taskName": "restart",
      "taskId": "nemMt1Eq"
    },
    {
      "entityName": "SoftcareDB",
      "startTime": 1579917413740,
      "endTime": 1579917418924,
      "duration": 5184,
      "taskName": "restart",
      "taskId": "YteoqHcm"
    },
    {
      "entityName": "Forum",
      "startTime": 1579917412177,
      "endTime": 1579917413210,
      "duration": 1033,
      "taskName": "stop",
      "taskId": "EjCXhb5j"
    },
    {
      "entityName": "Forum",
      "startTime": 1579917419438,
      "endTime": 1579917436730,
      "duration": 17292,
      "taskName": "restart",
      "taskId": "e2PK6UsF"
    }
  ]
}
