{
  "baseTime": {
    "seconds": 1580860646,
    "nanos": 472000000
  },
  "observedAt": {
    "seconds": 1580912826,
    "nanos": 937000000
  },
  "appStatus": {
    "ForumDB": "RUNNING",
    "SoftcareWS": "RUNNING",
    "SoftcareApp": "RUNNING",
    "Softcare_dashboard": "STOPPED",
    "SoftcareDB": "STOPPED",
    "Forum": "STOPPED"
  }
}
