{
  "baseTime": {
    "seconds": 1580860646,
    "nanos": 472000000
  },
  "observedAt": {
    "seconds": 1580925857,
    "nanos": 713000000
  },
  "appStatus": {
    "ForumDB": "RUNNING",
    "SoftcareWS": "RUNNING",
    "SoftcareApp": "RUNNING",
    "Softcare_dashboard": "RUNNING",
    "SoftcareDB": "RUNNING",
    "Forum": "RUNNING"
  }
}
