{
  "baseTime": {
    "seconds": 1580860646,
    "nanos": 472000000
  },
  "observedAt": {
    "seconds": 1580949173,
    "nanos": 816000000
  },
  "appStatus": {
    "ForumDB": "STOPPING",
    "SoftcareWS": "RUNNING",
    "SoftcareApp": "RUNNING",
    "Softcare_dashboard": "STOPPED",
    "SoftcareDB": "RUNNING",
    "Forum": "STOPPED"
  }
}
