{
  "baseTime": {
    "seconds": 1580860646,
    "nanos": 472000000
  },
  "observedAt": {
    "seconds": 1580878103,
    "nanos": 406000000
  },
  "appStatus": {
    "ForumDB": "STOPPED",
    "SoftcareWS": "RUNNING",
    "SoftcareApp": "RUNNING",
    "Softcare_dashboard": "STOPPED",
    "SoftcareDB": "RUNNING",
    "Forum": "STOPPING"
  }
}
