{
  "baseTime": {
    "seconds": 1580860646,
    "nanos": 472000000
  },
  "observedAt": {
    "seconds": 1580891975,
    "nanos": 490000000
  },
  "appStatus": {
    "ForumDB": "RUNNING",
    "SoftcareWS": "STARTING",
    "SoftcareApp": "RUNNING",
    "Softcare_dashboard": "STOPPED",
    "SoftcareDB": "RUNNING",
    "Forum": "RUNNING"
  }
}
