{
  "baseTime": {
    "seconds": 1580860646,
    "nanos": 472000000
  },
  "observedAt": {
    "seconds": 1580938411,
    "nanos": 157000000
  },
  "appStatus": {
    "ForumDB": "RUNNING",
    "SoftcareWS": "RUNNING",
    "SoftcareApp": "ON_FIRE",
    "Softcare_dashboard": "ON_FIRE",
    "SoftcareDB": "RUNNING",
    "Forum": "RUNNING"
  }
}
