{
  "baseTime": {
    "seconds": 1580860646,
    "nanos": 472000000
  },
  "observedAt": {
    "seconds": 1580950171,
    "nanos": 148000000
  },
  "appStatus": {
    "ForumDB": "RUNNING",
    "SoftcareWS": "RUNNING",
    "SoftcareApp": "RUNNING",
    "Softcare_dashboard": "RUNNING",
    "SoftcareDB": "RUNNING",
    "Forum": "STOPPED"
  }
}
