{
  "baseTime": {
    "seconds": 1580860646,
    "nanos": 472000000
  },
  "observedAt": {
    "seconds": 1580950479,
    "nanos": 863000000
  },
  "appStatus": {
    "ForumDB": "RUNNING",
    "SoftcareWS": "RUNNING",
    "SoftcareApp": "ON_FIRE",
    "Softcare_dashboard": "RUNNING",
    "SoftcareDB": "RUNNING",
    "Forum": "ON_FIRE"
  }
}
