{
  "baseTime": {
    "seconds": 1580860646,
    "nanos": 472000000
  },
  "observedAt": {
    "seconds": 1580868006,
    "nanos": 723000000
  },
  "appStatus": {
    "ForumDB": "RUNNING",
    "SoftcareWS": "STOPPING",
    "SoftcareApp": "RUNNING",
    "Softcare_dashboard": "STOPPED",
    "SoftcareDB": "STOPPED",
    "Forum": "STARTING"
  }
}
