{
  "baseTime": {
    "seconds": 1580860646,
    "nanos": 472000000
  },
  "observedAt": {
    "seconds": 1580864617,
    "nanos": 933000000
  },
  "appStatus": {
    "ForumDB": "RUNNING",
    "SoftcareWS": "ON_FIRE",
    "SoftcareApp": "ON_FIRE",
    "Softcare_dashboard": "STOPPING",
    "SoftcareDB": "RUNNING",
    "Forum": "RUNNING"
  }
}
