{
  "baseTime": {
    "seconds": 1580860646,
    "nanos": 472000000
  },
  "observedAt": {
    "seconds": 1580893547,
    "nanos": 81000000
  },
  "appStatus": {
    "ForumDB": "ON_FIRE",
    "SoftcareWS": "RUNNING",
    "SoftcareApp": "ON_FIRE",
    "Softcare_dashboard": "STOPPING",
    "SoftcareDB": "RUNNING",
    "Forum": "RUNNING"
  }
}
